[{
    "AlbumTitle": "Heelflip Through Space",
    "AlbumImage": {
        "path": "/admin/storage/uploads/2022/02/26/heelflipThroughSpace_uid_621a47b451302.jpg"
    },
    "Band": {
        "_id": "621a4ddb63643983bc0000ab",
        "link": "Bands",
        "display": "Luke E.H."
    },
    "ReleaseYear": "2021",
    "SpotifyLink": "https://open.spotify.com/track/6Z9uWdeEhOB6vJzttz6lLg",
    "AppleMusicLink": "https://music.apple.com/us/album/heelflip-through-space/1599967504",
    "SoundCloudLink": "https://soundcloud.com/luke_e_h/heelflip-through-space",
    "YouTubeLink": null,
    "AlbumIsForSale": false,
    "_mby": "5fd225213431312f2300031b",
    "_by": "5fd225213431312f2300031b",
    "_modified": 1645891396,
    "_created": 1645891396,
    "_id": "621a4f446534355d9e000231"
}, {
    "AlbumTitle": "Answers",
    "AlbumImage": {
        "path": "/admin/storage/uploads/2022/03/13/wkki-final_uid_622e178357e79.png"
    },
    "Band": {
        "_id": "621a4ddb63643983bc0000ab",
        "link": "Bands",
        "display": "Luke E.H."
    },
    "ReleaseYear": "2021",
    "SpotifyLink": "https://open.spotify.com/track/1zy70jjY8WvPBdiO4XiE3j?si=80284fe1a2014f44",
    "AppleMusicLink": "https://music.apple.com/us/album/answers/1586626250?i=1586626251",
    "SoundCloudLink": "https://soundcloud.com/luke_e_h/answers",
    "YouTubeLink": null,
    "AlbumIsForSale": false,
    "_mby": "6151da76373435037e000319",
    "_by": "6151da76373435037e000319",
    "_modified": 1647187984,
    "_created": 1647187984,
    "_id": "622e18106535336cb10000b0"
}, {
    "AlbumTitle": "Sleep On The Moon",
    "AlbumImage": {
        "path": "/admin/storage/uploads/2022/03/13/Moon_uid_622e186e1a1b1.jpg"
    },
    "Band": {
        "_id": "621a4ddb63643983bc0000ab",
        "link": "Bands",
        "display": "Luke E.H."
    },
    "ReleaseYear": "2021",
    "SpotifyLink": "https://open.spotify.com/track/2u45FxgQ9d9PmVhh1kHNRx?si=ee033ff5219741fe",
    "AppleMusicLink": null,
    "SoundCloudLink": "https://soundcloud.com/luke_e_h/sleep-on-the-moon",
    "YouTubeLink": null,
    "AlbumIsForSale": false,
    "_mby": "6151da76373435037e000319",
    "_by": "6151da76373435037e000319",
    "_modified": 1647188097,
    "_created": 1647188097,
    "_id": "622e18816132634dbc0002c1"
}]